<?xml version="1.0" encoding="utf-8"?>
<!-- Generated by IcoMoon.io -->
<!DOCTYPE svg PUBLIC "-//W3C//DTD SVG 1.1//EN" "http://www.w3.org/Graphics/SVG/1.1/DTD/svg11.dtd">
<svg version="1.1" xmlns="http://www.w3.org/2000/svg" xmlns:xlink="http://www.w3.org/1999/xlink" width="32" height="32" viewBox="0 0 32 32">
<path d="M17.848 31.514c-0.85-0.839-1.572-1.876-1.865-3.046-0.292-1.142-0.143-2.251 0.386-3.299 0.27-0.535 0.579-1.181 0.789-1.892 0.364 0 0.629 0.006 0.971-0.154 0.094-0.044 0.193-0.099 0.27-0.16-0.226 1.048-0.662 1.981-1.032 2.714-0.408 0.806-0.519 1.644-0.303 2.521 0.248 0.977 0.866 1.832 1.567 2.527l-0.783 0.789zM16 0.326c5.043 0 8.96 3.906 8.96 8.96 0 4.519-2.836 8.37-7.277 9.412h-3.36c-4.441-1.043-7.277-4.894-7.277-9.412-0.006-5.054 3.912-8.96 8.954-8.96zM13.473 21.716c-0.022-0.177 0.006-0.359 0.072-0.53l0.734-1.826h3.437l0.734 1.826c0.066 0.171 0.094 0.353 0.072 0.53-0.061 0.574-0.535 1.004-1.114 1.004h-2.819c-0.568 0-1.048-0.436-1.114-1.004zM22.157 9.286h-1.12c0 2.759-1.672 5.087-4.43 5.639-0.204 0.022-0.414 0.050-0.612 0.050v1.114c0.248 0 0.552-0.017 0.794-0.061 3.305-0.646 5.368-3.443 5.368-6.742z"></path>
</svg>
