<?xml version="1.0" encoding="utf-8"?>
<!-- Generated by IcoMoon.io -->
<!DOCTYPE svg PUBLIC "-//W3C//DTD SVG 1.1//EN" "http://www.w3.org/Graphics/SVG/1.1/DTD/svg11.dtd">
<svg version="1.1" xmlns="http://www.w3.org/2000/svg" xmlns:xlink="http://www.w3.org/1999/xlink" width="32" height="32" viewBox="0 0 32 32">
<path d="M8.63 8.615h4.267v-1.477c0.012-0.41 0.347-0.738 0.759-0.738 0.006 0 0.011 0 0.017 0h4.654c0.005-0 0.011-0 0.016-0 0.412 0 0.747 0.328 0.759 0.737l0 1.477h4.267c0.007-0 0.015-0 0.024-0 0.619 0 1.122 0.493 1.14 1.107l0 1.848h-17.067v-1.846c0.018-0.615 0.522-1.107 1.14-1.107 0.008 0 0.017 0 0.025 0zM21.399 12.677c-0.415 0.002-0.753 0.327-0.775 0.736l-0.747 9.602c0.004 0.409 0.337 0.739 0.747 0.739 0.011 0 0.021-0 0.031-0.001 0.413-0.002 0.751-0.327 0.774-0.736l0.747-9.602c-0.001-0.408-0.332-0.739-0.74-0.739-0.013 0-0.025 0-0.038 0.001zM10.601 12.677c-0.011-0.001-0.023-0.001-0.035-0.001-0.408 0-0.74 0.331-0.74 0.739l0.747 9.6c0.023 0.411 0.361 0.736 0.775 0.738 0.009 0 0.020 0.001 0.030 0.001 0.41 0 0.742-0.33 0.747-0.738l-0.747-9.6c-0.023-0.411-0.362-0.736-0.776-0.738zM17.815 12.722c-0.003-0-0.007-0-0.010-0-0.413 0-0.75 0.327-0.765 0.737l-0.265 9.558c0.008 0.41 0.342 0.738 0.753 0.738 0.008 0 0.017-0 0.025-0 0.001 0 0.004 0 0.007 0 0.414 0 0.751-0.327 0.767-0.737l0.264-9.557c-0.006-0.41-0.341-0.741-0.752-0.741-0.009 0-0.018 0-0.027 0zM14.189 12.722c-0.007-0-0.015-0-0.024-0-0.411 0-0.744 0.329-0.752 0.738l0.263 9.557c0.016 0.411 0.354 0.738 0.767 0.738 0.003 0 0.006 0 0.008-0 0.007 0 0.015 0 0.023 0 0.411 0 0.745-0.329 0.753-0.738l-0.265-9.556c-0.014-0.412-0.351-0.74-0.765-0.74-0.004 0-0.009 0-0.013 0zM23.699 11.939l-1.101 12.621c-0.057 0.587-0.548 1.041-1.145 1.041-0.007 0-0.013-0-0.020-0h-10.864c-0.006 0-0.012 0-0.019 0-0.597 0-1.087-0.455-1.144-1.037l-1.101-12.626h15.39zM13.673 8.617h4.655v-1.478h-4.655v1.476zM18.327 7.14v0z"></path>
</svg>
