<?xml version="1.0" encoding="utf-8"?>
<!-- Generated by IcoMoon.io -->
<!DOCTYPE svg PUBLIC "-//W3C//DTD SVG 1.1//EN" "http://www.w3.org/Graphics/SVG/1.1/DTD/svg11.dtd">
<svg version="1.1" xmlns="http://www.w3.org/2000/svg" xmlns:xlink="http://www.w3.org/1999/xlink" width="32" height="32" viewBox="0 0 32 32">
<path d="M10.301 24.099c0.186 0.263 0.489 0.433 0.832 0.433 0.002 0 0.003 0 0.005 0 0.079-0.007 0.151-0.021 0.221-0.041 0.068 0.027 0.155 0.041 0.245 0.041 0.284 0 0.535-0.141 0.687-0.356l15.098-14.954c0.189-0.187 0.305-0.446 0.305-0.732s-0.117-0.545-0.305-0.732c-0.189-0.187-0.449-0.303-0.737-0.303s-0.547 0.116-0.737 0.303l-14.58 14.439-4.235-4.186c-0.189-0.187-0.449-0.303-0.737-0.303s-0.548 0.116-0.737 0.303c-0.189 0.186-0.306 0.445-0.306 0.731s0.117 0.545 0.306 0.731z"></path>
</svg>
