<?xml version="1.0" encoding="utf-8"?>
<!-- Generated by IcoMoon.io -->
<!DOCTYPE svg PUBLIC "-//W3C//DTD SVG 1.1//EN" "http://www.w3.org/Graphics/SVG/1.1/DTD/svg11.dtd">
<svg version="1.1" xmlns="http://www.w3.org/2000/svg" xmlns:xlink="http://www.w3.org/1999/xlink" width="32" height="32" viewBox="0 0 32 32">
<path d="M6.4 1.6h19.2c2.651 0 4.8 2.149 4.8 4.8v19.2c0 2.651-2.149 4.8-4.8 4.8h-19.2c-2.651 0-4.8-2.149-4.8-4.8v-19.2c0-2.651 2.149-4.8 4.8-4.8zM19.559 15.078h-6.764v2.762h3.92c-0.302 1.662-1.766 2.872-3.92 2.872-2.378 0-4.306-1.928-4.306-4.306s1.928-4.306 4.306-4.306c0.020 0 0.043-0.001 0.067-0.001 1.051 0 2.006 0.407 2.718 1.072l-0.002-0.002 2.026-1.993c-1.237-1.141-2.897-1.841-4.719-1.841-0.031 0-0.063 0-0.094 0.001-0.034-0.001-0.080-0.001-0.126-0.001-3.906 0-7.072 3.166-7.072 7.072s3.166 7.072 7.072 7.072c0.046 0 0.091 0 0.137-0.001 0.093 0.006 0.21 0.009 0.328 0.009 3.633 0 6.578-2.945 6.578-6.578 0-0.12-0.003-0.24-0.010-0.359 0.001 0.015 0.001 0.012 0.001 0.010 0-0.524-0.051-1.036-0.147-1.532zM27.177 15.52h-2.246v-2.21h-1.798v2.21h-2.247v1.768h2.247v2.21h1.798v-2.21h2.246v-1.768z"></path>
</svg>
