<?xml version="1.0" encoding="utf-8"?>
<!-- Generated by IcoMoon.io -->
<!DOCTYPE svg PUBLIC "-//W3C//DTD SVG 1.1//EN" "http://www.w3.org/Graphics/SVG/1.1/DTD/svg11.dtd">
<svg version="1.1" xmlns="http://www.w3.org/2000/svg" xmlns:xlink="http://www.w3.org/1999/xlink" width="32" height="32" viewBox="0 0 32 32">
<path d="M18.962 24.96l-0.253 1.187q-1.139 0.515-1.818 0.786c-0.441 0.172-0.951 0.271-1.485 0.271-0.032 0-0.064-0-0.096-0.001-0.047 0.003-0.107 0.005-0.168 0.005-0.763 0-1.456-0.295-1.972-0.778-0.472-0.481-0.765-1.143-0.765-1.874 0-0.030 0.001-0.060 0.002-0.091 0-0.329 0.021-0.657 0.061-0.979 0.034-0.281 0.097-0.646 0.18-1.051l0.949-3.856q0.126-0.555 0.214-1.050c0.052-0.27 0.083-0.582 0.086-0.901 0.005-0.049 0.008-0.102 0.008-0.157 0-0.328-0.102-0.632-0.277-0.882-0.228-0.182-0.525-0.296-0.849-0.296-0.057 0-0.113 0.004-0.168 0.010-0.265 0.002-0.524 0.050-0.765 0.136-0.241 0.083-0.463 0.168-0.647 0.246l0.254-1.189q0.931-0.437 1.784-0.746c0.478-0.189 1.031-0.303 1.609-0.312 0.057-0.004 0.119-0.006 0.182-0.006 0.749 0 1.43 0.291 1.935 0.767 0.459 0.483 0.742 1.14 0.742 1.863 0 0.039-0.001 0.077-0.002 0.116 0 0.155-0.016 0.459-0.051 0.879-0.032 0.429-0.1 0.826-0.201 1.209l-0.934 3.794c-0.077 0.309-0.147 0.661-0.208 1.058-0.049 0.264-0.082 0.573-0.091 0.889-0.006 0.058-0.010 0.115-0.010 0.172 0 0.334 0.115 0.641 0.308 0.883 0.243 0.175 0.551 0.281 0.883 0.281 0.053 0 0.105-0.003 0.157-0.008 0.275-0.007 0.542-0.056 0.793-0.143 0.228-0.067 0.437-0.149 0.638-0.247zM19.2 8.829c0 0.016 0.001 0.035 0.001 0.054 0 0.643-0.252 1.227-0.662 1.659-0.385 0.434-0.945 0.706-1.568 0.706-0.007 0-0.015-0-0.022-0-0.004 0-0.010 0-0.017 0-0.628 0-1.192-0.272-1.58-0.705-0.415-0.452-0.669-1.054-0.669-1.716s0.254-1.264 0.669-1.715c0.388-0.437 0.953-0.712 1.583-0.712 0.006 0 0.011 0 0.017 0 0.004-0 0.011-0 0.017-0 0.626 0 1.188 0.275 1.571 0.711 0.412 0.436 0.663 1.023 0.663 1.669 0 0.017-0 0.034-0.001 0.051z"></path>
</svg>
