<?xml version="1.0" encoding="utf-8"?>
<!-- Generated by IcoMoon.io -->
<!DOCTYPE svg PUBLIC "-//W3C//DTD SVG 1.1//EN" "http://www.w3.org/Graphics/SVG/1.1/DTD/svg11.dtd">
<svg version="1.1" xmlns="http://www.w3.org/2000/svg" xmlns:xlink="http://www.w3.org/1999/xlink" width="32" height="32" viewBox="0 0 32 32">
<path d="M10.868 9.354h-1.547c-0.001 0-0.002 0-0.003 0-0.612 0-1.109 0.496-1.109 1.108 0.165 0.907 0.593 1.693 1.201 2.3 0.662 0.753 1.39 1.42 2.185 2-0.385-1.583-0.66-3.448-0.726-5.365zM11.986 15.889c-1.21-0.738-2.244-1.616-3.125-2.631-0.739-0.746-1.236-1.702-1.391-2.769-0.001-1.047 0.826-1.873 1.846-1.873 0.002 0 0.003 0 0.005 0h1.513c-0.026-0.738-0.030-1.476-0.030-2.215h10.388c0 0.739 0 1.477-0.029 2.215h1.513c0.002 0 0.003 0 0.005 0 1.021 0 1.849 0.826 1.852 1.846-0.151 1.097-0.652 2.056-1.386 2.78-0.895 1.032-1.93 1.911-3.082 2.615-0.483 1.525-1.546 2.709-2.925 3.292l-0.033 2.759h0.74c0 0 0 0 0 0 0.613 0 1.111 0.496 1.114 1.108v0.369h0.372c0.612 0.001 1.109 0.495 1.113 1.107v1.109h-8.905v-1.108c0.004-0.612 0.5-1.107 1.112-1.107h0.372v-0.369c0.003-0.612 0.5-1.108 1.112-1.108h0.741v-2.747c-1.409-0.594-2.47-1.777-2.885-3.232zM21.131 9.354c-0.065 1.962-0.34 3.828-0.804 5.618 0.872-0.785 1.601-1.452 2.25-2.19 0.622-0.621 1.050-1.408 1.211-2.288 0.003-0.639-0.494-1.135-1.106-1.135-0.002 0-0.003 0-0.005 0h-1.546zM16 17.107v0.739c1.588 0 2.496-1.643 3.013-3.711 0.4-1.755 0.645-3.78 0.675-5.856l-0.739-0.044c-0.028 2.043-0.265 4.014-0.692 5.915-0.403 1.567-1.111 2.958-2.257 2.958z"></path>
</svg>
